*** Life<FredkinCell> 40x3 ***

Generation = 0, Population = 55.
00-
-0-
-0-
000
-00
0--
0-0
0--
0--
-0-
0--
0-0
000
00-
-0-
0-0
---
--0
-00
00-
00-
00-
000
0-0
---
0--
0--
-0-
---
-00
---
0--
00-
--0
-0-
-00
---
--0
-0-
0--

Generation = 9, Population = 65.
3--
--4
--5
221
30-
-10
-12
-4-
--0
---
---
10-
-33
-2-
55-
1--
1-4
-12
--2
-5-
322
7-2
--1
11-
44-
224
404
404
5-0
34-
35-
311
--0
02-
3--
--3
-30
-1-
---
-1-

*** Life<FredkinCell> 25x35 ***

Generation = 0, Population = 125.
---0----------------00-------------
0-00---0------------------------0--
---------------0------0----------0-
---------------------0---0-0---00--
------0-------------------00-------
------0-----------0----------0--00-
--0---0---0------------0-----00----
------0-------------------0--0-----
-0---0-------0--0------0-----0-----
----0------------------------------
---0--00-----0----0----0--------0--
---00--0-----0---0-0-0-------------
--------0-----00----0--0----0------
----0------00-------0-00--------0--
-0--------------0---------0--------
--0----0---------0------------0----
-----------0-----0--0--0---0-----0-
-------0---0-0--0-----0----000---0-
-----------0-----00--------000-----
-----------0-----------0----0------
---------------00-0--0--------0----
0------0-------0-00---0---0---0----
-------------------0--000-0-0----00
------0-------------00----0-0------
---------------------------0-------

Generation = 4, Population = 324.
------10-------011----0-1101-----0-
----1------0------1---------11---10
--13--2---00------0112-1--2---1--0-
------3----------0---1-1-2141--1--0
-121-0----0--0--0---102------000---
1--12--0--1---0-------0--2--12--2-1
2-10--21--0--211--10--00-011----3-1
--110--0--1--0---1-1--0----1--1202-
-----01-1---0-13-1-1---0-01-1----0-
0---0-1-1--01-----0-0-10-----1---0-
-1-1--11-2-0--3-00-1--00--01222---0
1-30--0-12-0-1-0-2---0-0-00--10----
-2--00----2-31---30-2--------1--31-
0---2------1-1-00-01--4-1-1--0---00
-0-2-110---101---2--0-10---3110-1--
0---1-00---------2-0---1--0-1-----1
-------01----112--130---1--20110-2-
0--11----0--------------02---010---
-0-----1-----3000--3-2---2--1--00-1
--0---0--------3-3-003--0-004-1-0--
------------0-3----0--01-11------22
--011--1---2--1-1-12-01----1011--00
-----------1---3-1-00-211-12-----1-
--0---1---00----12--1211-12---0-1--
---------------10-12-12-2-0-2-10-22

Generation = 8, Population = 320.
-202-32---030---3-----------012----
---1----0-12---0--2-----1----23-22-
---5---------00---0------142-23-1--
---00--2---------------206-6-12-20-
1-------1---------033-22----4----10
--154--4--101-1-----4001161--31--1-
32221-----0---522-3-3-2---1----431-
1-3----4------1--53--3--------5--30
-2-3----33-3-1-4-3---2-42--4---4---
1--1-------213--1-----2----105--14-
0--3-2----2---41-00--21-1-034341-1-
--50-2---2-133-2-------4----12-15--
1------0----5-----2-3033--201-21--1
0-026-13------3--1-53-6-2-1-002031-
--1--53-001-------21--3---3-232--1-
----1----10----1----300--1--32--3--
-1-3-0---3--13-42------2---34--2---
---253--1-----21----2---23---25--43
------11-20--4----3-36-4-611----221
----0-12-----1-5-4--------0-6--1--0
-------3--0--250---13--3-----1--042
2---3-3-00160-5--3--0-3--0--------0
-1---------2--2-1---21---3-323-22--
0-2----3---0300--32-3--2-----31----
------------------341--2----41---6-

Generation = 12, Population = 421.
--02-4---41-11-15--1--113--2224----
--4---132--3--1---30-3-3-----6--2--
1---1051-1511--0-1--2434-3------1--
--00----2--3--4--0223--2-847--42-13
-----12-112--21--124-32-3-2-5--1-3-
4--7----4--0342-600280------------5
522-3--31--133-240-3724--033-4254-2
5--4-236-55-2-53-64--71-3-3522-41-2
-2--4--345-5---4---53--8-1663-3--0-
3-1-0-2-3143---21-0123--1-1--6----0
2-04-6-41-22-26241---4-31--7------2
-29-16453255-70-3-1-5-1-2----40----
--1215------7-2-0-21-0-501--3--3--3
2--4-134----2-3------1-13---12----3
-3230-53--3-2-0--46-4-5-----3--0---
0-102--113--410-2-32-1-2----7----2-
0------24-12--38464633223-25443--3-
14526-----------0-2-44-------4-5-5-
-2-4----3----53---5-3-353-3-3-2---3
---30--34--23-27--04---011-28-1-6--
-1---23---4-139--0-23--525--2-42244
2--13-342---2-------1----17-----222
-1---11--4--41-513234--5-71----6-5-
---1---4421-30---5-5452415-34522-1-
-0-----0--13-03------43-----62-3383

*** Life<FredkinCell> 2x8 ***

Generation = 0, Population = 16.
00000000
00000000

Generation = 8, Population = 12.
-333333-
-333333-

Generation = 16, Population = 12.
4-6666-4
4-6666-4

*** Life<FredkinCell> 5x36 ***

Generation = 0, Population = 72.
0-0----0-00---0--0--0000--0----000--
-0--0--0-----000-00---0-0-000----0-0
000---0-0--00---0-00--0------0-00-0-
---0--0--000-0----000----00-00--00--
-0-00---0-----0--0-00---0----0----00

Generation = 1, Population = 99.
-0-00-01-110--1-01-01-11-01-0-01--00
0100-0-1-000-1110---0--0----1---010-
111-0010----100--01--01000-001-1----
0--1-01001--0---0----00--11-110--100
0---1000--00---00-0--0-0--0--10-0-11

Generation = 2, Population = 75.
-10-101---2-0-20-2-1--2--12-1-12---1
--1--1----1-0----00-1-0---0---001---
22--1-21--0--1--0120--21--01--0----0
-----1---2--1-0-1---01-0---0-----21-
10--211---11--01---0010-0-10-----0--

Generation = 3, Population = 99.
02--2121-13-1-31-30--03102--------0-
01200201-0--1-11-1----------101121--
33-0--320-101--0-2310---00--011-00--
----02100-0--0102-00---1--1-1-0-0-2-
21003220--22-0-2--011210--2-0---01--

Generation = 4, Population = 89.
-----23---4-2-----1111---32-10120--1
1--113-2011----2--001000---0-12-3---
--11104--0----0-0-4210--11-112211---
--01-3-----0----301101-2--2--11----0
3---433--0-3-103-0-2----003-1100-2--

Generation = 5, Population = 95.
0--0--4-0-5--0-1-3-22--10430212--00-
-1--24-3-2-01----11----1---1-23--1-0
33--2-5--1-0-1-0125--1-1220------0-0
00----1---0110---12-1---013-1220022-
-10-54400--4-2-40103-2--1---2211--11

Generation = 6, Population = 92.
--0----1-1-------413313----1-2-20-1-
122--5--031-21---2--100-0-021--13-01
-411306-021--2-1--62----33--1--1--01
-1------0-1--11-3231-1--12---331-3-0
--1-6-5-10-503-5-2141-102-30-32----2

Generation = 7, Population = 84.
0-10-24-02--20--0---42-10--22-----2-
233--6------3-120310-1--1013--32--1-
-52--17-1320--0--2----214---2------2
0201-3-0--2--22-43-21---2--0--4---2-
---------126--0-0-25222--041-----213

*** Life<FredkinCell> 23x19 ***

Generation = 0, Population = 127.
-0--0-0-0---0-0-0--
--0-----00-000000--
----0------0---0---
0-0-00---00000-----
--0-0---0--0--0----
---0----00000------
00-0-0-0--0-0-0-00-
--------0----00----
--0--0-----0-----0-
-0-0-00-00---------
------0------0-----
0---0---0-0------0-
0---00-0--------0--
0-0-0---------0---0
--0---0--------0---
-0---------0-0--00-
--0-00-00-0-0--0-0-
-0-0-------0-00--00
0-0--------0----0--
0-0----0----0-0--0-
------0---------0--
00---0-----0-0-----
-00---00---0--0---0

Generation = 11, Population = 203.
25--323-620-----3-4
-1--02--43----7----
4-03----22353---32-
-----42--53-31--3-1
33-533-5--4--------
-5----3--54--31--16
-3---417-------3462
3--2----3-13-------
2--0434-18-12-5---2
441---1------4-6---
--521---11--3-----2
630--62-1---263-725
3-----3313-3--34---
65-6-2--0-342--26-1
0--135-32----4-13--
207--0-0---00-4--14
5-----1-44--54-0-23
----5-1---1---3433-
224---4-2-7--1-4-32
6-53--05----5--221-
33-15-51-3-200-----
----50---0--3255213
43483----123---2224

*** Life<FredkinCell> 28x6 ***

Generation = 0, Population = 73.
--0-00
-0---0
-0--0-
-0---0
0-----
-----0
----00
-00-0-
-0--00
000---
-00---
---00-
00--00
-0-0--
00--0-
0--0-0
-0-00-
0-00-0
0----0
0000-0
-0-0-0
00--0-
-0-0-0
0-00--
-00--0
---000
-00---
-----0

Generation = 11, Population = 96.
3205--
176---
----0-
-91-3-
-31-23
-33201
35--24
-022-2
22-104
--5-62
-203--
273822
-0413-
-112-1
------
-317--
13--41
34-35-
05---1
4-44-1
31----
--1213
6-361-
13---2
-623-2
6--62-
-97---
---124

*** Life<FredkinCell> 48x47 ***

Generation = 0, Population = 11.
-----------------------------------------------
-----------------------------------------------
-----------------------------------------------
-----------------------------------------------
-----------------------------------------------
--------------------------------------------0--
-----------------------------------------------
-----------------------------------------------
-----------------------------------------------
----------0------------------------------------
--0--------------------------------------------
-----------------------------------------------
-----------------------------------------------
-----------------------------------------------
-----------------------------------0---------0-
---------------------0-------------------------
-----------------------------------------------
-----------------------------------------------
-----------------------------------------------
---------------------------------0--------0----
----0------------------------------------------
-----------------------------------------------
-----------------------------------------------
-----------------------------------------------
-----------------------------------------------
-----------------------------------------------
-----------------------------------------------
-----------------------------------------------
-----------------------------------------------
-----------------------------------------------
-----------------------------------------------
-----------------------------------------------
-----------------------------------------------
-----------------------------------------------
-----------------------------------------------
-----------------------------------------------
-----------------------------------------------
-------------------------0---------------------
-----------------------------------------------
-----------------------------------------------
-----------------------------------------------
---------------------------0-------------------
-----------------------------------------------
-----------------------------------------------
-----------------------------------------------
-----------------------------------------------
-----------------------------------------------
-----------------------------------------------

Generation = 2, Population = 43.
-----------------------------------------------
-----------------------------------------------
-----------------------------------------------
--------------------------------------------0--
-----------------------------------------------
------------------------------------------0---0
-----------------------------------------------
----------0---------------------------------0--
--0--------------------------------------------
--------0---0----------------------------------
0---0------------------------------------------
----------0------------------------------------
--0--------------------------------0---------0-
---------------------0-------------------------
---------------------------------0---0-----0---
-------------------0---0-----------------------
-----------------------------------0---------0-
---------------------0-----------0--------0----
----0------------------------------------------
-------------------------------0---0----0---0--
--0---0----------------------------------------
---------------------------------0--------0----
----0------------------------------------------
-----------------------------------------------
-----------------------------------------------
-----------------------------------------------
-----------------------------------------------
-----------------------------------------------
-----------------------------------------------
-----------------------------------------------
-----------------------------------------------
-----------------------------------------------
-----------------------------------------------
-----------------------------------------------
-----------------------------------------------
-------------------------0---------------------
-----------------------------------------------
-----------------------0---0-------------------
-----------------------------------------------
-------------------------0-0-------------------
-----------------------------------------------
-------------------------0---0-----------------
-----------------------------------------------
---------------------------0-------------------
-----------------------------------------------
-----------------------------------------------
-----------------------------------------------
-----------------------------------------------

Generation = 4, Population = 44.
-----------------------------------------------
--------------------------------------------0--
-----------------------------------------------
-----------------------------------------------
-----------------------------------------------
----------0-----------------------------0-----0
--0--------------------------------------------
-----------------------------------------------
-----------------------------------------------
------0-------0-----------------------------0--
0-----0----------------------------0---------0-
---------------------0-------------------------
-----------------------------------------------
----------0------------------------------------
--0----------------------------0-------0-0---0-
-----------------0-------0-------1--------0----
----0------------------------------------------
-----------------------------------------------
-----------------------------------1---------0-
---------------------0-------0-------00-------0
0-------0--------------------------------------
-----------------------------------------------
-----------------------------------------------
---------------------------------0--------0----
----0------------------------------------------
-----------------------------------------------
-----------------------------------------------
-----------------------------------------------
-----------------------------------------------
-----------------------------------------------
-----------------------------------------------
-----------------------------------------------
-----------------------------------------------
-------------------------0---------------------
-----------------------------------------------
-----------------------------------------------
-----------------------------------------------
---------------------0-----0-0-----------------
-----------------------------------------------
-----------------------------------------------
-----------------------------------------------
-----------------------0-0-----0---------------
-----------------------------------------------
-----------------------------------------------
-----------------------------------------------
---------------------------0-------------------
-----------------------------------------------
-----------------------------------------------

*** Life<FredkinCell> 46x25 ***

Generation = 0, Population = 28.
-----------------------0-
----------------0--------
------------0------------
-------0-----------------
-------------------------
-------------------------
-------------------------
-------------------------
-------------------------
----------0----------0---
-----------------0-------
-------------------------
-----------0-------------
-------------------------
-------------------------
-------------------------
-------------------------
-------------------------
-------------0-----------
-------------------------
---0---------0-----------
-------------------------
-------------------------
0------------------------
-------------------------
--0----------------------
-------------------------
---0---------------------
--------------0-------0--
-------------------0-----
--------0----------------
-------------------------
-------------------------
0----------0-------------
-------------------------
-------------------------
----0-------------------0
------0------------------
-0-----------------------
-----0-------------------
-------0-----------------
-------------------------
-------------------------
-------------------------
---------------0---------
--------0----------------

Generation = 4, Population = 106.
------------0------0---0-
------------1---0---0----
--------0-------1------0-
---0-------0-------------
-----------------------0-
----------0-----0----0---
------------0----0-------
-------0-----------------
-----------0-------------
------0-------0--1-------
-------------0-------1---
-------------------------
-------0-------0---------
----------0----------0---
-------------0---0-------
-------------------------
---0-------0-0-----------
-------------------------
---------0-------0-------
0------------------------
-------0-0-------0-------
--0----------------------
-------------0-----------
--010--------------------
---1---------00-------0--
0-----0------------0-----
--------0----------------
1------0-----------------
----------0-------------0
0-1--------0---0-------0-
----0-------0------------
---0---------------------
----0---------0-------0-0
--0-1-00-------0---0-----
-0------0----------------
-----1-------------------
0------11-----------0-0--
0-1-------00-------------
-0---0-------------------
-1-------1---------------
---11------0---0--------0
------1-0----------------
-0-----------------------
-----0--0----------------
-------0---0---0---0-----
----0-------0------------

Generation = 8, Population = 100.
---------------0---0-----
--------1-2----------0--0
----0------------1--1----
-------0-------0---------
-----------00------------
----------------1--------
-----------------------2-
-------------------------
-----------------------0-
--0----------1--3-1--1---
---------0--10-----------
-------0-----------------
-------------0-----1-----
-------------------------
-------------------------
0------------------------
-------------------------
--0-------0----------0---
-----0-----------0---0---
---1---------------------
---1-0--------0------00--
-------------------1-----
--------0----------------
------1-1----------------
-------------------------
0---2-----01-------------
-------------2-----------
---1-------0-------------
---02-1------00-----0-0-0
------0----0-----------0-
00--------------0--------
2----0-------------------
-------1-----------------
--00--2-2----------0-----
-------------------------
---0---------------------
--4---------1-010-0---0--
2-------1-----1----0-----
-----0--01---------------
-3------1----0-----------
-------------------------
1----------1-------------
-------------------------
-------------------------
----1------------------00
0----32---------0--------

*** Life<FredkinCell> 12x39 ***

Generation = 0, Population = 105.
-0----0--------------00--0-----0--0----
----00--------0-0---0---------------0--
--000--0-00----------------0----00-----
-------0-0---------0---00-0-----0-0----
--0-------0-----000------00--00----0-0-
--------0-------00--000---0-00-000-----
---0--------------0--000---0--00--00--0
-----0------0-00--------000--0---00----
0----0------0--------------00-0---0----
-----------------0------0-0----0------0
--0---0---0--00-----------00----0--0---
00--0------0---0-0--0-----0---0--0-----

Generation = 11, Population = 219.
--------04-22---3443056-22-14-1-3-3-3-4
-1--23222-------6022------3022-2--324-0
-6543---5-4-1-------02112--6------0--1-
-----1--2-----34-25-4-254242044--8-----
0----2---10--2---2--6-6-4432-3-04232---
24--0--10-3--64413----54---38-3---52--3
---3------3-230-1---14--1452--4-01--2--
05124-3-2--------3313-3-2--3-23--64-50-
42-2--314--0-3-12-3--21014-----33--3032
23---3-016--4-----4--14-126--5111333---
30--05---64-2-2--444------4-2-1--2---4-
4--4------0-13-0541------112-2-31---07-

*** Life<FredkinCell> 31x36 ***

Generation = 0, Population = 63.
------------------------------0----0
--------------------0-0------0------
--------------------0---0------0----
--------------------------------0---
----------0-------------------------
------0-------------0--------0------
-------------------------0------0---
-------------------------0-----0----
--------0---------------------------
-----0--------0---------------------
0-----------------------------------
-------------------00----------0----
--------0-----0-------0-------------
----0-------------------------------
------------------------------------
---------0------0---------------0---
------------------------------------
0-----------------------------------
------0---------------0-------------
--0----------------------00---------
-------------------0-------------0--
-----------------------------0-0----
-0----------0-----------------------
---------0-------------------0-----0
----------0-0----------0------0-----
----------------------------0-------
-0--------0------------------0----0-
0-----------------------0----------0
-----------------------------------0
-----------0---------0--------------
---------------------0-------------0

Generation = 12, Population = 442.
0-0-1---4-1---1-2---603-821--22-3-4-
001-332-303---2--1----1---1---422-0-
--0-0-3-----2-0-21-13-1--4--3-2-621-
---------0-----1-0--3---2--01---0--0
----4-2-4-3-1-2-----1---320-544-1-0-
-11-42----3-00---1---4----3-4-204--2
4-------1-2-00--2----1143-2-55--1-27
--1--1-----2---------3-2210----141--
4---2-2-2-1-1---1-21----0-1---1---1-
230--10--42---1-12---23-04--32-4-0-1
-1--3-----------100-5----3221-2--1--
01----00-------2---2-42-22-0311-3---
0---4-2-3-0---304---3--------1----0-
-20--25---4--14-----0---2--201-----2
-----0----0-----0---112-0---1-20--0-
234-------22-----2122--23-3--2--0-3-
1---0-----301-4----------12---32-001
-3----4--1-0------2-2--02------141-0
----2-1--1--1-3-----10----2---7-01-4
1-0-3-1------1-0----3-2433--033--45-
--1----11---------0-1-4---23-643-24-
-----211---2--00---212-----623-2-6-4
0-0---4-2-1--0--001--32-302--0-3-33-
-12-2-0-0-1-1---1-00-0-0-35521-3122-
-0----1---0-----200-----1-21--1-----
--01---0---1-2-110-1---220--2--3-1-1
0-4-4-2-------0--10-03-4-0-0------25
20----5--13-----10----21-5-2--3-1--6
--0-003---0--10---1-1501---3-3------
2--2---0-0-2-1-1-2-424-13--42--33--3
--0-------1---0--41--501------20-3--

*** Life<FredkinCell> 30x26 ***

Generation = 0, Population = 146.
00--0--------0-0-----000--
----00----0--00-----0--0--
----------00--------------
---000-0------0--0-----0--
--00--00-0-----------0---0
--0------00----0-0--------
0----0-0----0-----00----00
0-0-------------0---------
-----0---0-------------00-
----0-----------0-----0---
----------0---------------
----00---0--0-0---0---00--
-----0----00---------0----
---000----0----0-000-0---0
----0--0-0-0------00-0----
--------0-0------0---0----
0-----------0----0--------
-0---0-0----------0-00----
-0-----0---0-0------------
-0--0--------------0------
-----0----0-00--0----00---
-------------0--------0---
0----------00----0---0----
-------0------------0-----
-0-------0-------0--0----0
0---0----0--00--0----0--0-
------0-0---------0-------
--0----------------------0
---0--0-0-0---0-----------
0-----00------------------

Generation = 3, Population = 411.
1-02-01000----00-10111102-
001-1-2010---031-11--1--0-
11121-12-0--2-010-0000-1--
--0-132-00001-102101-20102
02--------10-0-0---000-0--
0-31-2-020122-2---------0-
-000---0----0---2-----10-1
---0-0000-1-00--12--0--0--
200-010-00---000---1011130
10--111--200-0-0-00----120
0-0-0--011-22000-000----10
-0---120-001101---1200--20
-00------0-31-0--0-----2-0
-123----013-01--1--01021--
--10-021--1-----10--10--0-
01-1---11--02000--0---01--
1-10--0-0--0-2-1-11-01---0
03---1-3-11--000-1--3-210-
-0-1--0-0--10001110-0-1---
0--2-1-2----010--1-02-2-0-
1201-000--1--1-2--122302-0
0-----0----2-1-----10-101-
-2100100----3-1121--11-1--
--0-1--00--0-0001-----00-0
-0------210020010--21-1-01
10-0002-0--01--2-02110----
0-0120-001--0--0-2-0000---
-0-0--1101-011-0--0-0--1--
--00--101--000-01--0-0-00-
-0-0-2--11------0-0-----0-

*** Life<FredkinCell> 37x10 ***

Generation = 0, Population = 9.
0---------
----------
----------
----------
----------
----------
----------
----------
----------
----------
----------
----------
------0---
----------
----------
---------0
---0------
----------
----------
----------
----------
----------
----------
----------
--0-------
-----0----
----------
----------
----------
----------
-------0--
----------
----------
----------
----------
----------
------0--0

Generation = 5, Population = 92.
-0---0----
0-0-0-----
-0--------
----------
-0--------
0---------
----------
------0---
-----0-0--
------0---
---------0
--00----0-
-0120----0
--00------
-----0-0--
----0-010-
------2-0-
------00--
---------0
--00----0-
-01100---0
--000-0---
-----0----
0-----0---
-----0-0-0
--0---000-
-0----0-00
--0----0--
-0-0-0----
--000-0--0
--0-00--0-
---0--0---
-----0-00-
-------0--
-----012--
--0--00--0
-0-00---2-

Generation = 10, Population = 98.
----0-----
----------
--------0-
----------
0---0---0-
---------0
--00--0---
-------0-0
-11--0----
---------0
---1--0---
----------
2-1-2---0-
-0-0------
0-11--1--0
-0-4------
00--22-1-2
-0-----2--
--11--1--0
-----1----
----2--10-
---------0
---0001--1
-0-------0
-11--102--
---1-0----
---00-2--1
-0-----0--
----11121-
----------
--201-2-1-
-----2----
0---111--1
---0---0--
0000--22--
-----0----
--1-3-5530

*** Life<FredkinCell> 4x31 ***

Generation = 0, Population = 10.
--------0----------------------
-------------------------------
-------0---------0-----00------
--------0-0---0-------------0-0

Generation = 3, Population = 52.
-----01---10--0-0-0---0110--0-0
-----00--010-0---0-0-0000000---
----0--0-1----0---0--12112-00--
-------000---0-0-0-0-00---10-0-

*** Life<FredkinCell> 49x29 ***

Generation = 0, Population = 56.
-0---------------------------
-----------------------------
----------------0-----0------
-------------------------0---
-----------------------0-----
-----------------------------
0----------------------------
--------------0------------0-
-----0------------0----------
---------------------------0-
--------0--------------------
----0--0---------------------
-------------0-----0---------
---------0---0---------------
--------------------0--------
----------0--0---------------
----------0----------0-------
----------------0------------
----------0-----------0------
-----------------0-----------
----------0------------------
-----------------------------
-----------------------------
-------------------0---------
----------------------0------
---------------0-----0-------
-------------------------0---
-0-0------------------------0
-----------------------------
-0-------0---------0----0----
-----------------------------
-----------------------------
-------------0--------0------
-----------------------------
-----------------------------
0------------------0---------
0----------------------------
------------0----------------
-----------------------0-----
-----------------------------
0--------------------0-------
-------------------0---------
-----------------------------
------0-0---0----------------
-----------------------------
-----------------------------
---------0-------------------
----0------------------------
-----------------0-----------

Generation = 4, Population = 204.
-0---0----------0-----01-----
-----------------------------
10----------0-----0-0-----0--
--------------1------1-----0-
-1---0------------00-------0-
---------------------------0-
--0-1---0-------1-----1------
----0--1--0-------1----1-0-0-
-1-------1---01----1--00-----
---------0---0---------0---0-
0---0-------1-------1--------
0--1----1-11-31------------0-
-----1---10----2-01--2-0-----
-----1---1---4--11---------0-
--------1-3-----1-----2-0----
----0-01-3----0--------------
------0---4--11--1-2-----0---
---------1--12------0--------
------0-------1---1-2-----0--
----------1--------0-1-------
------0---0---0------10------
---------------01----0-------
----------0-----------0--0---
-0-0-----------0-0-----0----0
----------0-------0-------1--
-0-------0-0-----0------01---
---------------------0-------
-0---0-0-----------0----0-0--
-------------0---------------
-0-----------1------12-1----0
-------------------------0---
10-0---------------0--------0
1--------1-------00-------0--
-1-------0--0------0----1----
-----------------------1-----
--2-0----------0-------1-----
2-2-0--------0-------11------
--------0-------0--0---------
-------------------0-------0-
1-----0-0---0------2---------
0-0-0------------1-------0---
------------0--0-------0-----
---------0-------------0-----
--0-----0-0-0---0------------
0----------------0---0-------
-------------------0---------
-----0-------0---0-----------
0---0-0-----0----------------
---------0---0-------0-------

*** Life<FredkinCell> 3x15 ***

Generation = 0, Population = 44.
000000000000000
000-00000000000
000000000000000

Generation = 4, Population = 7.
---0-------1---
---0---0---0---
---0-------1---

*** Life<FredkinCell> 37x49 ***

Generation = 0, Population = 132.
------------------0----------0----------0--------
-----------------0----0---0------0---------------
-----0----------------0---0--0-----------0-------
-------------------------------------------------
----0---------------0----------------------------
-----------0----------------0------------------0-
-----------------------0---0---------------0-----
-------------------------------0-----0--------0--
0-0---------0----------------0-------------------
------------00------0------0---------------------
---------------------0-----------0---------------
-------------------------0--0---0----------------
--------------0------------------------0---------
-0------------0-0-----------------0--------------
----------------------------0--------------------
-------------------------0-00--------------------
0--0--0-----0----------0----00-------------------
--0--0-------------------------------------------
------0----------------0----------0--------------
-----------0---------0-----------------------0--0
-------------------0-0--------------------0------
--------------------------------0-------0-----0--
-------0-0----------------------------0------0---
---0-------0-0----0------------0-----------------
----------------------0----------------------0---
---------0-0--00------------------00---0-0-------
------------0-----0-----0-----------------------0
-----0-----------------------------------------0-
-----------------------------00----0-------0-----
------------------0-0----0------------0---0------
----------------------0----------0----0------0---
--0-----------------------------0------------0---
-0--0-----------0---------------0-----0----------
------0-0---------------0--------0-------0-------
----0--0----------0----------0--00------0--------
----------------------0--0----------0------------
0---------------------------0---------------0----

Generation = 5, Population = 800.
---0210----0---0-000----0241-1--0100----1-10-0-0-
-0--00---00-----0121---0----3--00-0--10-00-0000-0
0-0-----0-00-0---00---31-1-41---020-0-01-00----0-
-00-----00--0---0-0---100020-0--00--010----0---0-
-0-0-----0-01----0-00-002011---000---0-0-0-0--00-
--0--00----0-1--0----0101---00--2-0----0000-0-220
----0-00----10-0-00-0321---20-----00--0--1-0--02-
0-0--00-0-----0-0--01000010-1---23--0---0-10-----
-0-0-0--1--0-03-1--0-0-0-100---2-3-0--0-000----00
------00-2--014---0-0-0-10--4-0-1--0-0-0---0--0-0
-0------00-0--0--10--003-1--1-0-0-0--20---0-0-00-
--00--0---0------00-0-012--2-2-210--1-0------0-0-
---200-0-010-0---020-00--0-0--000-0--00---0-0-0--
01-------0100-3--010-0--0-0--0-00000-0-0---0-----
-00--0-0--00-0----0-0------0320-1-20--0------0--0
----0-000---0-0-0-----0---0-21--0-1----0--0-0-00-
0--0-1-210---03-20--0-0------1---2----0--0-0-00-0
-00-20-0-10--02-10-0-1--00--2-0020-0-----00----0-
10-----2--1--00000--0-----0-----1-0-----00----0--
0--10--201--0--1--2---0--00-2---1-----0-1-00--22-
-0-20----1-0-----1---3-00-0-1100--10-0----0-02-00
00-0020-0--20-2-000---0000-01----0320---------001
-----310--02-10----0-0-210-00-----0----02--101---
---003--0--2--41--001-2-0---000---030------00--2-
-------1-20--00---4-12------02--0-0-00-0-12-0-001
----0--3--12--1---------0---0---1-12---110--01-1-
-000-00------0-0-00-30---0-0-11-0-02-0-00-01--3--
0--1---0-1-------0-01-0--00-0-0--01---0---1-03010
01---00-0----0--201---300120-11-122--12---0001010
-0---0-011----02-01-11-100--0-000---1--1--10----0
0--0--0--0---0-010-0-0-0-0-001-0112-1---11-0--0--
------3-0---------0-10-0---0--0-11-000---3010-0--
-----1-1-00010----00-00-----0-10-03-301-----2--0-
---0-----0-0100--0-00---041022----000-10-01--30--
--0----0-0---0-0-----00-0-----1------1-00-0-0-0--
--1-0--00--0--0-00201221--110-0-01-0---0-0--010-0
02---00-0------0--10-000--0-1210310-00-00----0-0-

*** Life<FredkinCell> 45x42 ***

Generation = 0, Population = 70.
------------------------------------------
0-----------------------------------0-----
-----------------------------------------0
----0-----------------0-------------------
------------------------------------------
--------------------0---------------------
------------0-----------------------------
-------------------0------------0--------0
---------------0-0------------------------
---------------0-------------------0------
-------------------0-----------0-0--------
---0------------------------0----------0--
------------------------------------------
------------------------------------------
------------------------------------------
---------------------0--------------------
------------------------0-----------------
-----------------------0--------0---------
-0---0------------------------------------
---0------0-------------------------------
------0-----------------------------------
------------------------------------------
--------------0-0------------------0------
------------------------------------------
-------------------0---00-----------0-----
----------------0--------------0----------
------------0-----------------------------
------------------------0-----------------
-0----------------------------------------
-----------------------------------0-0----
----00----------------0--------0------0---
0------------------------------0----------
-----------------------------0------------
------------------------------------------
-0-------------------0----0---------------
-------------------------0---------------0
----00------------------------------------
------0--------------------------0-----0--
----0----------------0--------------------
---------------------------------------0--
------------------------------------------
-----------------------------0------------
--0--------------------------0------------
----0--------------------------------0---0
------------------------------------------

Generation = 4, Population = 228.
-----------------------------------------0
0-0-0---------------0-----------0---0---0-
------------0------------------------0-0--
0-------0---------00------0-----0--------0
---------------0-0------------------------
0--------------10-------0----------00-----
--------0-------0--1-----------0-0-------0
---00----------1------10------------10----
-----------1-0-----1-1--------------------
-----------0-------11----------1-------0--
------------0--3-------0---0-0-----3-0----
-------0-----------1-1--0----------2------
---------------1-0------0-----------------
---------------0-------0--------0--0------
-0---0-------------1-----------0-0--------
----------0------0-------0--0----------0--
------1-------------0-------0-------------
-------------------0-------00-------0-----
-----0---0----0-0------------------0------
------00------1------0--------------------
--1-------1--------0---1------------1-----
----------------0------1-------00---------
-0---1----1-------2-1----------1-------0--
---0------0-------------1-----------------
-0----0--------0---00--2---10---0-------0-
------------1-------0------0---------0----
----00--0-----2-------0--------1---0--0---
0-------------------0-------0--2----------
-0---2-------------0---11----0------0-----
----------------0----------------2-----0-0
1-------10--0-----0--1-----0------11------
--2-1-------------------10-1-------0-----0
-0--22-------------------0-------1--------
------0--------------------------0-0-0-0--
-0---------------0---0---0----11------0---
0--------------------0-------1-0-----0----
12------00-------------------0------------
--0-------0------------------------0-0---0
010-----1--------0---0---10--1------------
----0--------------------0---------0-0---0
----21------------------------------------
------0------------------0-------------0--
0---3-1--------------0---0-------0--------
1---1---0------------------------0--------
--2--------------------------2------------

*** Life<FredkinCell> 14x44 ***

Generation = 0, Population = 134.
----0--0---000-------0---00--------0---0----
--0----0---0----0--0---------0---0----------
0-----0--0--0-0-0-00--0-00---0---------00---
0------0-----0-------0---0-00--0-00------00-
---0------------0--0---0---------------00---
-------00--00----0----00-00-----------------
---0--0--0-----0-------0-0-0--------------0-
0---0---------00-----0------0---0--------0--
-----0-0-0--0----0---0---00-0------0-0------
--------------------------0-----0-0------0-0
-0------00--0----0----0---0---0---0--00--00-
------0---000---0--0----------0-------00-00-
-----0--0-----00----0----0--0--0----------00
--0------0----000-----------0-----000---0---

Generation = 6, Population = 314.
---10----13----2-1-00---2-41--3312-21-----10
00-0--2-0011-0---3-3212011-0--12-------0-110
-0-2-2--51101----0-2-1-0-21134-2--101-3-3--0
203--11--3---0-0--011011--0-3----22----03--3
21---20--3---11--0---1-41---1--1---10414410-
-001-21430--1-----3--2-41----13220---00---1-
-02-1-2---231----31-0-----3--23-1-----121--0
1-2011-32----32--0--0------21--32--0-------2
1-1-11----2--03-001-2-3--2104-0102-2--1--2-2
--0-1003-3002000---213---03-1-101--3--30-411
-012-0---600-1---2-3-112--3-101--0---411-32-
--0-0---0---22-112-0121-----0-10----201423-0
-01-300--23-0-0-3-202--11---1-00--201---1326
0-00001-102113-3--4-31-1--2-211121--112-2---

Generation = 12, Population = 301.
--2233---1----25--32-22-32--4--6-518--3--21-
---1--26--343021-5-5--223-1-42--2022-2101--4
-1-6-4-2-------2-233----5-----16--31--44-32-
-062--2-----2---3----0--146-7-2----5--0-5-3-
-31---42--10-2-2--245136--1-32-722----3---2-
0-----3-3---351-226-24-7-3----66312-2-21-1-2
-4323-42----1--5331------3-2--35--2---23210-
5-5-----53--3-334-22-3422-1-3-4---2-1401--1-
---023-13-33--611---------4-61-2051-3024----
000-4-052--23-2--12-44--6370-53----50150----
--14----674--21-2-2505--124-3032--4-1-2----4
00-34--5----225-----3-3----10---31---13-3-46
24-35-2-1-4202145----1--454-2--13-4254-1---8
-3-0-2-1--6-75-7-15---031------3---03----43-

*** Life<FredkinCell> 3x13 ***

Generation = 0, Population = 34.
00-00000000-0
000000-000000
0000-000000-0

Generation = 10, Population = 22.
-3-442441-1--
3-32-3-3-23-5
2655-3-5-----

*** Life<FredkinCell> 32x12 ***

Generation = 0, Population = 68.
-----0---0--
------------
0---0-------
-----0--0--0
------------
---0--00----
----0-0-0-00
00--0-----0-
----0---0---
-00-0-0--00-
-0---0--0---
--------0-00
-----------0
0-----------
-----------0
-----0------
------------
-0----------
--0--00-----
--------00--
---------0--
--0---0-----
0-----0-----
-0---00-0-0-
0---0------0
00----------
-0-0-------0
------------
---0----0---
---0------0-
---------0--
-----0-----0

Generation = 10, Population = 170.
-53-5--1-02-
--3-4-17-21-
----0-4-3-14
4--02211217-
4211-21-3-2-
2--6-1-10-36
-13---201-22
6--151------
-3----2----3
--4-52--23--
-------4-45-
37-02-51--2-
1-1---1--812
2-22145-2-5-
-1-----1--5-
---0-4---1-1
101---3--2--
---239--0-1-
---5-1----1-
------3-2--2
----12---3--
44-----1-2-1
34--32---306
45-04---42--
-409--51-2--
-22-22-0120-
--1--223----
---1-1-2-281
---3-2---6--
2----12-----
-11-1---10--
--0412--33-1
