*** Life<FredkinCell> 15x15 ***

Generation = 0, Population = 50.
0-----0---0---0
-0---000-0--0--
--0--000-----0-
-----0-----0---
-------0-------
0---0----------
--------0-----0
-0-0------00---
-0-------00---0
00-0----------0
---------------
-0-0-0--0------
0--0-----00-0--
-00------------
----0--0----000

Generation = 10, Population = 110.
---0-41----012-
361--5-----221-
11-4---1-3---2-
32-1--221--1---
2-53-0--1-5---2
--24--3-4-1010-
-251131--2-032-
3-2-342-421-4-4
5-25--3---410-1
-22-------4-2--
510--12---22-21
41-5-2-7-1-2---
--0-5--3-2311-1
42-------3-2-0-
2-72-76----4-25

Generation = 20, Population = 0.
---------------
---------------
---------------
---------------
---------------
---------------
---------------
---------------
---------------
---------------
---------------
---------------
---------------
---------------
---------------

*** Life<FredkinCell> 15x15 ***

Generation = 0, Population = 50.
---0----0----0-
-----0--0------
---0--0---00-00
---0--0--0----0
0------------00
--0-----------0
-----0-00------
-----0-----0---
--------0-0----
-00-0--0----0--
---------0-----
----0-0---0----
-0---------0--0
-----00---0--0-
-0-00--00----00

Generation = 10, Population = 100.
-2-2-34--22-3--
-2--10--2----34
-1-8-4--5----7-
---15----22--5-
222---521------
3-046---2333---
--002--2--2132-
-4217-0-0-2224-
7----2-2-3---20
-3-20-3--521172
--14--223--1-14
-3--50----34---
-2-42-4--10--2-
3----53---0----
-2-8--0---3-3--

Generation = 20, Population = 0.
---------------
---------------
---------------
---------------
---------------
---------------
---------------
---------------
---------------
---------------
---------------
---------------
---------------
---------------
---------------

*** Life<FredkinCell> 15x15 ***

Generation = 0, Population = 50.
-0--0-0----0---
0-------0-0----
--00-0--------0
-----------0---
-0-0--0----0---
--00------0----
------00--0-0-0
------------0--
-0---------0---
---0-----00----
---0---0------0
-----0----00---
--0--0--0-----0
---0-0-0----0-0
00-00-------0--

Generation = 10, Population = 112.
4---034-3--4136
4-4121324-2-1--
------43-2-0---
-0221-2-0--3-2-
32-4-161--2-215
-------2--15111
1114434--14-33-
-02-3-1-2-6-32-
3-----4----0---
-1-2--044-7-1-5
-----331--153--
-5-5--3-3-3111-
15023-44-25-233
0------0-3-5---
---564------30-

Generation = 20, Population = 0.
---------------
---------------
---------------
---------------
---------------
---------------
---------------
---------------
---------------
---------------
---------------
---------------
---------------
---------------
---------------

*** Life<FredkinCell> 15x15 ***

Generation = 0, Population = 50.
----0----00---0
0-------------0
-0--00---------
--000------0-0-
-------0-------
------0-0------
0--0-----0-----
---0--0----00-0
-----0-000-----
-0---0-------0-
0-0----00------
-0-----0-------
---0-----00----
--------0-0--0-
-0--0-0---0--00

Generation = 10, Population = 116.
34102-4----12--
-1-3121-32--22-
--2-2--0-12--42
0----20-5---42-
2-03--1-0----0-
-43021-1-26-44-
24-10--2-3-2--1
21--1-----1--16
-21016462--43--
-2---3-1-0-2-0-
146333---22----
12--0----42-3--
--13-3104--2-31
-5--125-25-116-
1--1025--2-2-2-

Generation = 20, Population = 0.
---------------
---------------
---------------
---------------
---------------
---------------
---------------
---------------
---------------
---------------
---------------
---------------
---------------
---------------
---------------

*** Life<FredkinCell> 15x15 ***

Generation = 0, Population = 50.
00--0---0---0--
--0------------
-0-0-0---00--0-
---00------0---
--0------0-0-0-
---00------0--0
0--------00----
---0---0-------
--0------00----
----------0--00
----0-0--------
--0---------00-
-----0---00--0-
-0------0--0---
--0-----00--0--

Generation = 10, Population = 106.
--1-34--4-85-33
-1-621---2-----
-22-30-2--3124-
--12-0---0-51--
1-1---0--2--33-
---1----510---2
-----0-15--12-2
-1-----------2-
01-11-22-46-07-
--2--2--5-235-4
5520--2--0-34--
--12-0---2-22--
1-2-5-5115315-1
3-3-201-34-2235
0531-31--------

Generation = 20, Population = 0.
---------------
---------------
---------------
---------------
---------------
---------------
---------------
---------------
---------------
---------------
---------------
---------------
---------------
---------------
---------------

*** Life<FredkinCell> 15x15 ***

Generation = 0, Population = 50.
----0--0----0--
00-----0-----0-
00--00-0--0----
---0-00-00----0
-----------0-0-
---0-----0----0
-0-0---0-0-----
-0--0----0-----
-----0---00--0-
-----00-0------
----0----------
--0-0----00----
----00----0----
-------0-------
---0--0------0-

Generation = 10, Population = 104.
35-52---1-2-342
-0531-----1-2--
1-------4-1-3--
--4233-2---3-3-
131----31--121-
3-2--14-3--14-0
24---5--3-2---0
1--34-1-3-21--1
-4-144--0--1---
3-21--3-01--2-1
-4--2-42--01-21
-2-3---1-3040--
---2--0---401-4
--2-2-----3000-
--3123--313----

Generation = 20, Population = 0.
---------------
---------------
---------------
---------------
---------------
---------------
---------------
---------------
---------------
---------------
---------------
---------------
---------------
---------------
---------------

*** Life<FredkinCell> 15x15 ***

Generation = 0, Population = 50.
00-0-----0-0--0
---------------
-0-------------
0-0-----0------
--00-00-----0--
--00------0--00
--0---0-----0--
--0---0----00--
--0--00--0-----
000-------0----
0-------0------
-----00------0-
0--000--------0
--------0-0-0-0
--0------------

Generation = 10, Population = 116.
251---2-0231-70
21-41-----1011-
--4-1-212---6-3
-3-2-0-210---14
3030---143--13-
-1--4-3-170-5-4
1-3-0--2--23---
2231-1---2-4115
06-5---0----40-
-1-------3--1-0
23-4--62-4---1-
16---112-5-4-1-
24441--3---142-
1--3-12-31-24--
21244----3---02

Generation = 20, Population = 0.
---------------
---------------
---------------
---------------
---------------
---------------
---------------
---------------
---------------
---------------
---------------
---------------
---------------
---------------
---------------

*** Life<FredkinCell> 15x15 ***

Generation = 0, Population = 50.
---00-0-----00-
0--00-----00---
--0------0-0-0-
-0---0-----00-0
--0----0-0--0--
----0---0-0----
------00-------
0-----0-0--0---
---------------
-0-0--0------00
-0-------------
0---0--------0-
--0--000---0---
--------0-0----
---0-------0---

Generation = 10, Population = 120.
01-2-----853--7
111--1---0341--
------600----1-
1-0-04743-3--2-
1-216-542422--2
133--2-----5-0-
02---2462-3----
-3-132---331-2-
0-0---44321-12-
04-2--1-01--44-
3-3301641-15--1
312----0-1-----
-2--2-261-4----
2-26216-23--46-
1-32-30-1-11140

Generation = 20, Population = 0.
---------------
---------------
---------------
---------------
---------------
---------------
---------------
---------------
---------------
---------------
---------------
---------------
---------------
---------------
---------------

*** Life<FredkinCell> 15x15 ***

Generation = 0, Population = 50.
------0---0-0--
-00-------0--0-
--0----0-----0-
--0-0---0-0----
----0--0-------
0--0-0----0-00-
-----0---0----0
-------0-------
----0---0---0--
--------0-0----
-------0---0---
0---------0----
00----0-0-000-0
-----0------0--
00---------000-

Generation = 10, Population = 122.
4--10-4---4-0--
-22413-1---21-3
-112-2231---2-2
--2-52--41-1-25
-3234-7-3122--1
-2--75-4-3-0-11
---21-14-4-6-1-
10-2501-2211-11
2------4120--21
--1-3-235--02-5
--3-22----3--64
5--2--3---3-11-
--712--0-20-122
-2--13141-----2
-244334--43--22

Generation = 20, Population = 0.
---------------
---------------
---------------
---------------
---------------
---------------
---------------
---------------
---------------
---------------
---------------
---------------
---------------
---------------
---------------

*** Life<FredkinCell> 15x15 ***

Generation = 0, Population = 50.
----0-0--------
0-0---0------0-
-------00-0---0
--------0---0--
0--------00----
---------0-0-00
-----------0-0-
0------0------0
--0-----00-----
-0---0--00-----
-0-0-----------
-----0--0------
-0------0------
000---0---00--0
000-0--0------0

Generation = 10, Population = 98.
-0-1---2-2121--
---0-052-24--34
-004-1---36----
-1--5234--02-10
------00542-5--
43-2--4----12--
-31-0------3-3-
25-4--1-0--3-21
-----4---0721--
-32--2--20----0
--1211010--2---
6--232-33-1----
---412---3--01-
3--55--32----3-
-31-2--1-1-----

Generation = 20, Population = 0.
---------------
---------------
---------------
---------------
---------------
---------------
---------------
---------------
---------------
---------------
---------------
---------------
---------------
---------------
---------------

*** Life<FredkinCell> 15x15 ***

Generation = 0, Population = 50.
---000---------
----------0----
----0-------0--
--0------00----
0--0-----00----
0---00---------
---0--0-0---0-0
---0-----0-----
00----000---00-
------00---0-00
---0-0----0----
--------0---0-0
----0-----0----
--------0-0----
----0-----000-0

Generation = 10, Population = 108.
--3----8-1-0213
-0-05720-5302-1
31--4--1---1-1-
121431----243--
-753-5--4--4100
5---2----05----
-1-5-4-42-0--21
4-1---------3-6
------02-026--4
-----00-1-----4
-3---31------31
4-212-1-163301-
----1-132--4--1
---132-31255321
22-3--2242-----

Generation = 20, Population = 0.
---------------
---------------
---------------
---------------
---------------
---------------
---------------
---------------
---------------
---------------
---------------
---------------
---------------
---------------
---------------

*** Life<FredkinCell> 15x15 ***

Generation = 0, Population = 50.
-0---00--------
-----0---0--0--
---0---0--00---
--0---------0--
0----0-----0--0
--0--0---------
---0-----------
--0---------0-0
-00------0--0-0
------0--00----
----------00---
-----00-0--00--
-00--------0---
00---00----0---
-0-0-0-0-----0-

Generation = 10, Population = 106.
-01-45-0---1-2-
0--2-4---------
1-3-23--2--34--
--21-05112-20--
--4-5-450-5---3
3-2-3421-430223
-0202----20----
0-6---4-3---3-2
---------1-122-
222012-3131-5-6
23-11--0--0651-
--25-45404-62--
4-2--21---233--
---------2-5--3
--53---2-44----

Generation = 20, Population = 0.
---------------
---------------
---------------
---------------
---------------
---------------
---------------
---------------
---------------
---------------
---------------
---------------
---------------
---------------
---------------

*** Life<FredkinCell> 15x15 ***

Generation = 0, Population = 50.
------------000
0-0----------00
-----000---0--0
00-0------0--0-
---000---------
--0--0---------
0----0--------0
----0-0--------
-0-----0-0-00--
------0-------0
----00-----00--
--------000----
-----0---0-----
0----00-0------
-0-0-------0---

Generation = 10, Population = 114.
4--3-2-4--60---
-1-----2-5--126
------3--33-34-
-232-3-1--1--63
------22-50203-
112---32-200-1-
--500-22-1--1--
025---2-0---032
-4-25--222---4-
3-2-3--133-0---
031-3642---4--3
----02334--05-6
0212330----3--1
2-612-512221---
-21--1-2--2-315

Generation = 20, Population = 0.
---------------
---------------
---------------
---------------
---------------
---------------
---------------
---------------
---------------
---------------
---------------
---------------
---------------
---------------
---------------

*** Life<FredkinCell> 15x15 ***

Generation = 0, Population = 50.
-0-0----------0
-----0----0---0
-----0--0------
----------0-0--
----0----00-0--
000--------000-
---------0-0-0-
0-0--------0-0-
---------------
---0-----------
----------00-0-
-0--------0-0--
-000--0--0-0-00
------0-0-----0
----0---0-00--0

Generation = 10, Population = 116.
1------1-21-313
4----24-43--02-
0-225-31----5-5
--0233------3-0
--46----23--0--
--1---11---0-1-
-0-1-31-544-3-1
-412444-361332-
--251-0-1----10
--5-22-32122-6-
2-------60-1--4
-7--347-2--2-10
-63-5-52---564-
---23-6-2-13535
5-1711624--2-18

Generation = 20, Population = 0.
---------------
---------------
---------------
---------------
---------------
---------------
---------------
---------------
---------------
---------------
---------------
---------------
---------------
---------------
---------------

*** Life<FredkinCell> 15x15 ***

Generation = 0, Population = 50.
-0-------------
--0------------
--0-0----------
-----0000-----0
0--0------0---0
-0----000------
-----0--------0
----00------0--
-0---0-------00
--0-0-0--0-----
000------0--0--
0--0--------00-
-0-0--------0--
-----00--00--0-
-0---0-0-------

Generation = 10, Population = 110.
---112-------12
-3--5-2-3151--2
-3426-40-2--133
2-4---2-3-1-01-
--1-51-41-----2
--5313-1--10423
---------12--2-
-7-4-22-25-2-3-
-400-63-3-112--
-05-2-41531-2-1
10-14323---143-
5----4---30--6-
2--3---0332----
----14----12-14
-3110----1--1-1

Generation = 20, Population = 0.
---------------
---------------
---------------
---------------
---------------
---------------
---------------
---------------
---------------
---------------
---------------
---------------
---------------
---------------
---------------

*** Life<FredkinCell> 15x15 ***

Generation = 0, Population = 50.
---------------
0---------00---
---0---00------
---0--0-00-----
---0---00--0---
-00--0---0-0-0-
0---------0----
-0--00--0---0--
00----000------
-------0-----00
--0-0------0---
----0--0-------
---0--0---0----
--0---0---00---
--00-0---------

Generation = 10, Population = 114.
3213-0---2-13-1
-------1----25-
30--20----4-11-
22-2-----4-4231
---7---7-1333--
343----00327-12
232-026-301----
---0-4---5-1---
122-0-4-2-0----
040-03-22--6-22
-2-44-3361-313-
2--63----4433-3
4-2--2---------
23202--2--22--1
12221-5-2-122-2

Generation = 20, Population = 0.
---------------
---------------
---------------
---------------
---------------
---------------
---------------
---------------
---------------
---------------
---------------
---------------
---------------
---------------
---------------

*** Life<FredkinCell> 15x15 ***

Generation = 0, Population = 50.
--0--0-0----0--
0---------0----
--------0------
----0----------
---0-0-00-----0
---0---0000----
--00--0--------
-0-----0--0--0-
-0-----0------0
----0-0-------0
-----0-----00--
---------0-----
---0---00---0-0
0---00---0--0--
0-00--------00-

Generation = 10, Population = 110.
-40---6--1---4-
61----223-235--
---3--4-2--351-
-22-211---3-100
--3---4---334--
-5---02-2----81
-22--22231--130
24-03-4-3-23-26
2-4-0011210-1--
-3220----441456
--0-124--4-25--
1-1-12--3-5-2--
4-2---4-3----31
5------3--2322-
-43-----22---6-

Generation = 20, Population = 0.
---------------
---------------
---------------
---------------
---------------
---------------
---------------
---------------
---------------
---------------
---------------
---------------
---------------
---------------
---------------

*** Life<FredkinCell> 15x15 ***

Generation = 0, Population = 50.
-00---0-----0--
------0----0--0
-------------0-
-00----0------0
-0------0-00-00
-------0---0-0-
00--0-----0----
-----------0---
-------0-------
--0-----------0
--0---00000-0-0
000-0-0-------0
-00----00------
------------0--
--------0---0--

Generation = 10, Population = 124.
----35--2-5-12-
024--142---1---
---02-5324--4-3
---3--13--21-12
44243-11201----
21--1--3-3--3--
--233--62---233
-0-04-3-2-23-0-
2472-1-5712-2--
---1-1215-40111
2------3-4-241-
3-51-2-3352521-
-3---6-6--54533
3---3--0110040-
3-003-1--031-03

Generation = 20, Population = 0.
---------------
---------------
---------------
---------------
---------------
---------------
---------------
---------------
---------------
---------------
---------------
---------------
---------------
---------------
---------------

*** Life<FredkinCell> 15x15 ***

Generation = 0, Population = 50.
-------0------0
------0-0--0---
-----00-0------
--00----0------
---0--0---000--
0--------0--0--
---------0----0
----00----00---
---0---0----0--
-0--0-00----0-0
-0---0----0--0-
0---------0----
-----------0---
00-0-0---0-----
-------0-0-0--0

Generation = 10, Population = 110.
-2--020-----0-2
4233--+2----11-
331-----2--3-10
235-5533-3--5--
-1---3-13---3--
2-1-641--3--3-2
0-2-20-0--12412
2-06-------51-3
-2----0442-5---
--5302--20-53--
02-113-30-210-4
-1--1--42-----2
--1-01--1020---
-5-5--33-----25
---41-3--5-3221

Generation = 20, Population = 0.
---------------
---------------
---------------
---------------
---------------
---------------
---------------
---------------
---------------
---------------
---------------
---------------
---------------
---------------
---------------

*** Life<FredkinCell> 15x15 ***

Generation = 0, Population = 50.
---0--0---00---
-0--------0----
00-------------
----00----0----
-----00------00
-----00-000----
0--00-----0----
-------0-00----
0--0-0-----0---
-0-0-------0---
-0--------0----
00--000-----0--
---------0---0-
--0-0-0---0----
0----------0---

Generation = 10, Population = 122.
2251-530--253--
-3-3-1---34---1
2-510--1---23-3
2--2----4---4-2
33-01-42512141-
02-52---1-----1
-332-2--31--1-2
4-4202---2114-5
4--4--3------4-
382-334--2-12-0
24331-111222-3-
----5---3-031--
2424--321-30002
352-------002--
-15----0343-1-1

Generation = 20, Population = 0.
---------------
---------------
---------------
---------------
---------------
---------------
---------------
---------------
---------------
---------------
---------------
---------------
---------------
---------------
---------------
