*** Life<FredkinCell> 32x34 ***

Generation = 0, Population = 100.
----------------------0------0----
----0------------0--0-------------
-------------0--------------0---0-
--0-----------0-----0------0----0-
---0--------0----0----------0-----
---0---0---------0----------------
-0-0--------------0---------------
-----0-0-----------0--------------
----------------0------0---00-----
--0----------------------0--0----0
-------0-------0---------0---0-00-
---0-------------0-0----------0-0-
-0---------0----------0-----------
----------------------0-----------
---0---------------------0--------
---------0---0---0----------------
0-0-----------------------------00
------------0-------------0-------
-----------------0-0--------------
-----------------------0----------
------------------0------0----0---
---------------0------0-0--0------
-0------0--0-------------00-------
----0-----------0-0---------------
----00----------------------------
----0----------------0-----0------
-------0-----------------0--0---0-
----0------------------0----------
0-------0-------------------------
0-----------0----------0----------
----0-----------------0-----------
--------0--0-----------------0-0--

Generation = 1, Population = 297.
----0------------0--00-0----0-0---
---0-0-------0--0-00-00-----00--0-
--0-0-------0----0-----------0-010
-0----------0--0-0-0-0----0-0--010
---10--0---0-00-010-0--------0--0-
-00-0-0-0---0---01----------0-----
0--100----------------------------
-0-00---0-------0---0--0---00-----
--0--0-0-------0-0-0--0-0001-0---0
-0-0---0-------00------0010-1--0--
--00--0-0-----0-00-0----010---01--
-00-0--0---0---00---0-0--0-----010
0-00------0-0----0-0-010------0-0-
-0-0-------0---------010-0--------
--0-0----0---0---0----0-0-0-------
0-00----0-0-0-0-0-0------0------00
---0-----0--00---0--------0----011
0-0--------0-0---0-0-----0-0----00
------------0---0---0--0--0-------
-----------------000--0-00----0---
---------------0-0-0--00--00-0-0--
-0------0--0--0-0-0--0---0--0-0---
0-0-0--0-00-0--00-0---0--11-------
-0-01---0--0---0---0-----00-------
---0110---------0-0--0-----0------
---01--0------------0-0--00-----0-
------0-0------------0-00-0--0-0-0
0--0-0-00-------------0-00--0---0-
10--0--0-0--0---------------------
10--0---0--0-0----------0---------
0--0-0--0--00--------0-------0-0--
----0--0-00-0---------0-----0---0-

Generation = 2, Population = 310.
-------------0------1-0-0--010-00-
------0-------00--110-1----0----1-
---0-------01--0-1----0---0-01----
0--0---0----1---0-0-0-0--0---00---
---2-0----0--110--10------0-0-0-1-
-11--0-0-0----00----0------0----0-
-0---1------0----0--0--0---0------
--0--0---0-----------0---0--1----0
-0-0---1------01-----0---11---000-
0--100-1---------0-----1--10---100
-0---0---0-0-0--11----0----00012-0
-11--0---------1-0-0-01--1----0-21
-------0-0---0-0----0---0----0-01-
---1-----0---0-----00---0-----0-0-
0-1--0-----0----------10---0----00
-------0----1------0--0---0-------
--010------------1-0-----0----01-2
---------00--10--1-----00---0-----
0-0------------0-000-0---0----0-00
------------0--0-----01-1100------
-0------0--0----01-10--1-0110---0-
----0--------0--101-0-00010--0----
---0100--11--0----1----002-00-0---
--0-2-0-------010-0-000-0---------
-001--1-0--0--------------0-0---0-
--0---0---------0-00-----1---0----
0---0---10-------------1--10------
1-0-0-0-----0----------0-1-0------
2-0-1-01--0-----------0--0--0---0-
2-0-1---1-01--0------0-0-0---0-0--
1-0---0-1-----------0---0---------
0-----0-011010---------0---0-----0

Generation = 3, Population = 528.
------0-----0--0--0-2-1--00--1-1-0
---0-0-0---00-1-0-2----00--10---20
0-010-00--01-0-10-00-0-0---01---1-
-00-000-0-0-2-00-010--100-0-0--01-
00-3-10----0-22--1-10-0----0-01-20
0-2-0-------0---010-10-0---1--0010
010-0-00---0-0000-001-0-0001----00
-0--01000-0-0-00-0---10001---000--
--01--0200---01200--01000---0011-0
-00----200-0-000-10--0--0----0021-
-1-0--000-----0-2200--1--1----2---
0-200100---0--0201--01-0--00001---
-000-00--10-01-100-01-101---0--12-
0---00-001000100--01-01-10-0---0--
----0-00-00--0------00-1----0-00-1
0--0000-0----0---001001-------000-
-01-10-0-00-000-02-10-00----0012--
0--00---0110021-0----00110-0-0-00-
---0-----00-00-1---1-1-001-000--11
000-----0----001--0---202-1---0--0
0-0-0--0-00--0----02--02-1-21--0-0
-0--1-0-00000100-1-01-1-1--00---0-
---1---0022001-0---0-00---1110-0--
--1-30-00000--1-1-1-1-101-00--0-0-
01-2-1---00-0-00---0000-0------0-0
0-1-1010-0-0---0--110--00-00--0-0-
10-010-0210-0---0-00--02002-00----
--1---1-0000-0---------1-201----0-
-------2-01-0-0--------00-0------0
----20--2--200-0------0-010-------
--10001-----000----0---0---0-0-0-0
100--01------10-----0-0---0-0---0-

Generation = 4, Population = 304.
---0--------10---01------11-----01
0--10--10----0--1---00--1---------
-0-2-----0-------11---0-0---21----
0----110--1-----0-21---11---1--12-
-------00----3-------0100--101--3-
--301--0---0-0---2--21---0--0----1
-2---1-------111------1--1--00-0--
-10------0-0--11-1-00--1---0--1---
-0-2-------0-----1-01-111--11--20-
0--1--03---------2---10-1------32-
-2-1--------------11-0-----000--0-
-----2---0-----3-2-0-2-1--1-1---2-
011--1-0-------21-0----1--001---30
--0---------1-----1------1--0----0
---------------0-0-0-1---0-----10-
---1-1---0---------2-1-0------1-1-
012-2-0----0------0---1--0--11231-
--------1------01-----1-2--1--0---
-0-1----0--0-1-2-----2-1--0-------
----0----0---1--0010-------0------
1-1-10--------0------01---1--0--01
----2------11-----1120-0---11--0--
-0--10------1--1-0-1-11--2--210-0-
0---4---1---0-2-----2-2-----------
-2-------1--------0------0----0---
--------0---0--1-0----0-11-1---0--
-1-12---3------------01-113-11----
1---0------1----0-00-------2-0-0--
--0-10------1---------------------
--0--------3----0--0-0-------0-0--
1---1--01---------0---0--00-0---0-
2------0-------0---------0-0------

*** Life<FredkinCell> 10x3 ***

Generation = 0, Population = 30.
000
000
000
000
000
000
000
000
000
000

Generation = 7, Population = 24.
010
4-4
101
202
-2-
-2-
202
101
4-4
010

*** Life<FredkinCell> 26x36 ***

Generation = 0, Population = 26.
-0----------------------------------
----0---0---------------------------
------------------------------------
---0----------------------------0---
-------0--------0-------------------
------------------------------------
----------------0-------------------
---------------0------0-------------
------0---------------------------0-
---0--------------------------------
-------------0-0-0------------------
------------------------------------
------------------------------------
-------------0--------------------0-
------------------------------------
----------0--------0----------------
------------------------------------
0-----------------------------------
--0---------------------------------
------------------------------------
-------------------------0----------
------0-----------------------------
------------------------------------
------------------------------------
------0-----------------------------
-------0----------------------------

Generation = 1, Population = 87.
0-0-0---0---------------------------
-0-0-0-0-0--------------------------
---00---0-----------------------0---
--0-0--0--------0--------------0-0--
---0--0-0------0-0--------------0---
-------0----------------------------
-----------------0----0-------------
------0-------0------0-0----------0-
---0-0-0-------0------0----------0-0
--0-0-0------0-0-0----------------0-
---0--------0-----0-----------------
-------------0-0-0------------------
-------------0--------------------0-
------------0-0------------------0-0
----------0--0-----0--------------0-
---------0-0------0-0---------------
0---------0--------0----------------
-00---------------------------------
00-0--------------------------------
--0----------------------0----------
------0-----------------0-0---------
-----0-0-----------------0----------
------0-----------------------------
------0-----------------------------
-----0------------------------------
--------0---------------------------

*** Life<FredkinCell> 27x38 ***

Generation = 0, Population = 107.
--------0----------------------------0
0----0--------0--------0------0-------
----------0--------0--000-----0-------
--------0----0-------------------0----
------------0-----------------0-------
-----0---------0----------0---0-0-----
-------------0-0---------0------0-----
--0--------0--0---------------0-------
------0--------------00-----0------0--
---0---0--0----0-------------0---0----
0----------0-----------------0-0-----0
-------------------------------0------
----00----0--------------0------0-----
--------------------------0-0-0-------
-------------------0-----------0------
--------0---------0------0-0----------
------0--0-------0-0-----0-----------0
0----0-----00-----0-----0-------------
-------0--------0---------0---0-------
-------------------0----0---0---------
------------------0-------0-----0-----
0-----------------------------0-------
-------0--0-0------0---00------------0
--------0-----0----------00------0----
0--------------------------0----------
-----------00--------0-----0----------
----0------------0---------0----------

Generation = 2, Population = 325.
------0-0----------0--010-----1----0--
0-00---01---01--0----0---0--0---00----
-----------------0--1-2-210-0-2-0----0
0-----0---10--1--------1--0----01--0--
-------------001---0--0000--0-2-------
--00---00--0--1--0------0-------210---
------0----110-2-0---000---00-----00--
0--100-0-01-10--0---------0-110--0----
0---0---0--1-0-1---01--1000--01001----
-01-----11-0001--0---------0--11---1--
0-0-000--00--0-------00--0-012-211---0
---0---0--1----0----------0-0-1-------
0-01--100--10------0---0---0-01---0--0
--------0---------0-----0000--001-----
----000--00--------0-0-------0--10---0
0----01---000---0-0-0--01200100-------
----0---0--1---010---0-0--11--00---0-0
0-00---1011--10-1-000-0-00100---------
-----11-------0--1-1----010----------0
-----0-----00----00--00-0-------------
----------0-0------00--0--0-1-----0--0
0-0-----0-----0----1----101-----10----
1----0--010-0-1--01---1--0-0----0--0-0
1-----0---10----0----0-10---0-00---0--
0-0-0--0--0-1----0-0---001-2-0-------0
--------001--1-----0---0--1--0---0----
0-0-0-0--------0-0-0-----0---0--------

Generation = 4, Population = 321.
----0-----0--------0--212--------1-0--
002-1----10---11--01---2---1----0-1---
------1-1----11---111--2-3-02---0-0--0
--0-0----1-21-3--1-----------01------1
------1---------1----12---0-0-----11-0
01-2-0-2-112--32---1--01--0-00---10-0-
1--------10------2---2020---0-10----10
2-----101-3--2-1--0-------2----0-20---
--1-20------0----11-----0-0---12-----0
---1-111------30---1-----0--02--10---1
--2-2--0-----2-----0-------0---21-----
--1-----0--0--1---0------0----3----0--
00----3-0-----0--0-0--1--1---2-----110
1--1-1-0--111--0--0---0---0--10-101---
1------1---0---01------1--00-210---0-0
----1-------2-0----1-1101---12--------
--1-0----------2--1----2-23--0---0-0--
002-0--321----013---2-0---1-----------
---1---0--11--------0-012-0---00--0--0
--------------10--2-0--12-001---00----
1-----0--1----1--1-0-----0-01-0-----10
2-0-01------------0--0--3-10------0---
---01-010--1--31-2-00--1--1-0-1--0-2--
----1-----3-1-----11-01-0---0-2------0
--0--------------00----2--12---10-----
0------02--21--100---0-2-1-0--10------
-------11-1-01-----2-0--1--1---0-----0

Generation = 6, Population = 516.
--1-2-----2-001--00-------010--00-1---
--41--1113--121--1--0-----------2-3-01
--------1--10--00013313-3--040--20-11-
0--0-10--12-31510-01--1---2--2-2-0-111
1---1-1--01--1---0---32112202--0-013--
-3--0-12-13-1154021-1----1-022-143-121
1---01100--1---2120-1--4-1---1-020---2
-11-21------12-111--0-11014-22-0-421-0
---1--1--0---01113--21-3--21103--1-01-
01210-1-21001-521----0-0-0----13-2-1-3
-1------00-11-11-002-11-0-1--4-4-2010-
----1----1-0-03---010-10-211--3-101---
---2--3-2-1221---0--11--1-0--430110--2
10-10--2--33--0-0000-12010-013----3-1-
-1--221-1------0---1-1130-02---212-000
-0-1311-00-1-----001--1032-1-4-1010---
--300-0---0--0-4-2---114-4-302---00--0
---2-1-3-322-3235122-0----1211--01----
110-0-3-00--1010-2-300-3-2-01-2-------
-0---1-101--011210----1----211-0---0--
3-1---01--101-3-1----1011012-00111----
---1--11--0-0-110----0--32-0100--1--11
20--3-2-220-0-530-----112---2----0-21-
----3111--32--11--11-23--21-2--11-02-0
2--1--0---11100-00-1---4--32---1--00-1
0-1-001---1-1--3-0-1--0-1--0--3-00---1
--0--011-011-311--1---1-10------10-0--

*** Life<FredkinCell> 27x34 ***

Generation = 0, Population = 128.
----------------------------------
--0----0-----------------0--------
---0--0-------------0-0-------0---
---0----0---------0---------------
------------------------------0---
------0----------0----0---------0-
-0--0-----------0---0---------0---
------0-------------------0-------
-0---------------------------00---
--------0-00--0--0-0--------------
-------0-------0--------0------0--
---0------0--0---0-0-----0--------
-0------0-0---0-----0----0--------
-0--0-----0---------0--------0----
------0-----00--0-----------0-----
------0-------00------0-------0---
0------------------------0-0------
-0---00------------0-----------0--
-0---------0-------00----00-0-----
----0-0--0----------0---0---------
--------------0-------0---00-----0
--0-0--------0---00--------00-----
--------0---00-0---------00-------
000---00-0-------0---------0-----0
-0-----0-----------0--------0-----
--0000-0-0----0-------0-----0-0-0-
--0--------------------0-----0----

Generation = 4, Population = 318.
---2--0-------------0-0-----------
0-10---1---0-----1---01--0---0--1-
-20-1--0--1-------3-2---0-----0---
----1-11----0-0-------1---1-------
-2------------------------1--11---
-------10--0-00--130-1---00-0---0-
12-1-1010---0--00-----3---1---01--
--1-----0----1---010--2--1----1---
-----1--0-1---0-----0-----0---2--1
-1-----0----010--00-1000-----0--1-
-0-10-1-----03-----1-------0--1--0
------11-1---0---1----02--0--00---
0---011---2-2-0-1-2--0--31-2--0---
1---------41----02------01-----0-0
-30----000112--001-0-----02-0--11-
--100-2--000-0---2--1---01--------
-02-0---0-0---------0000-122-0-1-1
-2---1---0---1-2-20-0--0----00---2
-1---1001------0-----312-42-012-1-
-3---0-3101--00102--2-0-1--31-0--0
10-----1--1--------0--00-320021---
-1100--00----1---2-1-0-00---1-2---
-30-0---00--1---10--1100-14-0-0---
11-0-----012--------10-10----0----
-211-1-----1--12------1-1-00-1--00
-1----1-0-12--0--01---0-0--32-1-2-
21----131---10-0----------102----1
