*** Life<Cell> 9x9 ***

Generation = 0, Population = 3.
---------
---------
---------
---------
---000---
---------
---------
---------
---------

Generation = 1, Population = 10.
---------
---------
---------
---000---
--01-10--
---000---
---------
---------
---------

Generation = 2, Population = 12.
---------
---------
---000---
---------
-01*-*10-
---------
---000---
---------
---------

Generation = 3, Population = 28.
---------
---000---
--01-10--
-00-0-00-
01-.-.-10
-00-0-00-
--01-10--
---000---
---------

*** Life<Cell> 5x5 ***

Generation = 0, Population = 4.
-----
--0--
-000-
-----
-----

Generation = 1, Population = 10.
--0--
--1--
01110
-000-
-----

Generation = 2, Population = 13.
-010-
0---0
1*-*1
--1--
-000-

Generation = 3, Population = 20.
-1-1-
10101
-*1*-
00*00
01110

Generation = 4, Population = 11.
-*1*-
*-*-*
1.-.1
--.--
-***-

*** Life<Cell> 4x4 ***

Generation = 0, Population = 2.
----
-00-
----
----

Generation = 1, Population = 8.
-00-
0110
-00-
----

Generation = 2, Population = 4.
----
1--1
----
-00-

Generation = 3, Population = 12.
0--0
-11-
0000
0110

Generation = 4, Population = 4.
----
1--1
----
-**-

*** Life<Cell> 5x5 ***

Generation = 0, Population = 5.
-----
--0--
-000-
--0--
-----

Generation = 1, Population = 8.
--0--
--1--
01-10
--1--
--0--

Generation = 2, Population = 16.
-010-
0-*-0
1*-*1
0-*-0
-010-

Generation = 3, Population = 12.
-1*1-
1-.-1
*.-.*
1-.-1
-1*1-

*** Life<Cell> 15x15 ***

Generation = 0, Population = 111.
-0-0000000-0-0-
0-00--0-0---000
---0-0-00---000
-00---0000----0
-0-0-----000--0
-0-00--00000---
0--00--0--00000
----00-----0---
-00----0--0-0-0
00-000-----0000
0-00--0-00-000-
0-0000----0--00
-00000----0--00
0---000000--0-0
-----00----0-0-

Generation = 2, Population = 127.
--1---*-**001*0
-----1-0-0-00-0
-1-*00--*0010**
-0*100--*----0-
10-*0--0-**--1*
---*011--*0-010
0010--1*000-00-
1-10-*1-0-1-1-0
0-*0-010------*
-000-*01-1--0-0
-10*1-0-**--*-1
----*0---0---*0
-*-*0-01-0-10-*
--1-----0*0000*
-00---00111--00

Generation = 4, Population = 103.
01110-*-*.--*.-
-1*-0.*-0-0**00
1.-.**10.*-.-..
0*.--0*1*10---1
.0-*-1---..--..
0--.*1--0.--010
--.-11*.-**-*0*
--.*0.*---.-*1*
*-.-0---011-1-*
-0--1*0-1.-1-10
--*.1---..--.*-
-0*-.--1--*1-.-
-.*.0-*.1--1-0.
0-.--0110.---*.
1-0-01*0**-000-

Generation = 6, Population = 95.
-**---.0..-1*.1
--.*-..1-1-.*--
*.-...--..-.*.*
-..---*.***1--1
.*-.-10-0..0-.*
010*..1--*-*0*-
10.1....1*.-.-.
*0.*-..-*-.*...
.-.---1101*1.-.
-0-**.*-**--*--
--..*--1*.10**1
-*.-.101--.1-*-
-...0-.*.-1*0**
*1*-101*-.--1**
*--0-***..--0-1

Generation = 8, Population = 100.
*.*10-.-**-..*1
--**-...-1-..-1
*.0..*--..-.*..
1*.-0-..*.*1---
**0*-.*0-..0-**
--0*...11*-.-*-
**.-...*1*.-.1.
*-.*-..0.-..*..
*0.-1*--0*.1*0.
10-...*1.*--*11
-1*..0*-..*-.**
*..0..0*-0.10**
-.*.**..*-*.**.
*-*---*.*.*1...
.10--***..-**-.

Generation = 10, Population = 90.
.***-1.**.-...-
-*..-.**-.*..-.
*.-..**-*.-*.**
*..-01*.*..10--
*.-.-.*-*..-0..
0*0...*...*.-.-
*..1..*....-.*.
*-**1..-.0...*.
.0*-**1*-..*.0.
--0.*..*..01.-1
-1...-.-.**-...
.*.-**0*-0.**..
-**..**..1****.
.-.1-*..*.*-.**
.*0-*.**..-**-.

Generation = 12, Population = 92.
.**.--.**.-...-
-...0...*...*1.
..1***.1..-.***
...*-.*....10--
*.*.*.*0**.1**.
-.*...*.....1.-
*.****.....-.*.
*-.*1.***-..***
.-.-..1.-*...-*
-*-..***.*01.-1
-....*.-.*****.
...1..*.00..**.
-....*.*.-...**
.1.1*.**...***.
..*-****..1**0.

Generation = 14, Population = 80.
....*-***.-...1
0..*-...*....-.
.***..*1..0**.*
.*.*-.**.*.-*1-
.***.*.-..*-..*
-.**.....*.***0
..**..*.*..0*..
.-..1..**-.**.*
**.***1.-****-*
-*-..*..*.--.1*
0..*...-.......
...-...**-.....
-.*..*...-*....
.1......*.**...
..*1*....*...-.

Generation = 16, Population = 64.
.....1.***-...-
-*.*1**....**-.
**.*..*-..-....
*.**-......-*.-
.....**1..*1..*
-.............-
...*....***-...
*1..**...0...**
......*.-....-*
-.*****...*-*.*
0*.**.***..***.
...-.....1.....
-.......**.*...
.-.............
...1.....***.-.

Generation = 18, Population = 62.
.......***-...-
-...1...**.**-.
*....**-*.1.**.
.*.*-*..*..-*.-
...**..........
-....**....**.-
....*.*....-***
.*****.***.*.**
...*.*..1****-*
-.....*.**.-..*
-......***...*.
...-...........
-.......*..*...
.-......*..*...
...-.........-.

Generation = 20, Population = 47.
......*...1*..-
-...1*..*****-.
...*...1*.-..*.
..*.-...*.*-.*1
...............
-..*...*......1
..**...*..*-**.
..**...****...*
......**...*.-*
-.....***.*-..*
-.....**..*....
...-...........
-..............
.-.............
...-.........-.

*** Life<Cell> 15x15 ***

Generation = 0, Population = 107.
-00--000--00000
--00-0--00---0-
00-00-00---00-0
-00-0-00000000-
-0-0-00---000-0
-00-0-0--0--0--
000--0----0--00
00-------0-0-0-
-000---0-0--0--
0--00---0-00--0
00----0----0--0
----0--0-00--00
00---0000000-0-
-0-000-0-0--0-0
--0--------0-0-

Generation = 2, Population = 117.
--001--*---0---
1-00-*-1**-01*-
*00-0-001-0-0--
0**-*-**0-----1
-000--*--1-**--
---10------0*-0
----000-010----
-*----011-101*0
10000010-*---01
----*1-001-0-1-
----010--11*--0
000---1---011-0
-0--10----*-1-1
-*1-0-1*---1000
-00-11010-10-0-

Generation = 4, Population = 96.
--0**0-*--**0*-
.--00.1...--..-
*-*1*---*-----1
-*.-.0*.0-*1-*-
---0--.00--..-0
0*--001--0-0.0-
0-00-0-1--0-0-1
-*--0-*.1--0-.-
.*--*-.-0.000*-
*---..-00***-*-
1----*-0--..--*
-*-1-1.-0-**100
------1--1.--*1
1*11-0-.0----*0
10---1***-.---0

Generation = 6, Population = 103.
0*-.**1*11.*-.*
.0****-*..--.*-
.-...0-1*111---
-..0.***-0..-**
----0-.*01-..10
0.---*.-0010*--
--*---0101-00-1
0.00*-*..---*.1
*.-1.*.--.000.-
*-0-.*-0**..-.1
.1011*-*1-..--.
-*11-*.-0-..1-*
----1-11-1.--.*
1.-*0--.--0--.-
--0-*1*.*1.-01*

Generation = 8, Population = 99.
-*-...-.-..*1..
*-*...*..*-0*.0
.-*..--*..1.*0*
0..-.*.*0-..-.*
-01-0-.*-*-*.10
0.11-**1*--**-0
-1*1110--11---.
*.0-.1*..*-*.*.
*.-....*1.*00.1
*-*1.*00....-.-
.10*-.0**-*.10.
*..10..-*0..-1.
-11-*-*.1-.--*.
-.1.--1.----*.-
*1-1*1..**.--1.

Generation = 10, Population = 95.
1*-...-.-.**-..
*1*...*..*1-*.*
.*...--*.*1.*-.
0.*-*..**-..-.*
1*----**-*0...-
-..1-.*.*11..--
-..*11----*1*1.
*.-1*-....-...*
*.-**.*****--*-
.-.-**-*....-.-
..*.1.-****..0.
*..10..1**..1-.
1*11.1.**1*1-**
-...--..---***1
.*1***.....011.

Generation = 12, Population = 85.
-.1...-.-*..-..
.1.....**..1.*.
.***.-0.**1..1.
-**0.**..-..1*.
1.----**1.0...-
1...1.*.*.*.*--
*...**1--1*-*.*
..*.*-....1....
..1*.*...*.**.1
.-.-.*-.****0.-
....-*1*.....0.
...-0*.**...1**
1*1-.-...*.--**
-..**-*.*-0..*-
..1***.....0.-.

Generation = 14, Population = 89.
-.-...-.-...1..
..***..****-...
..**.0-**....-.
-**0....*-....*
.**-1-..1.-...-
-*..**..*.*..1*
**.**.--1.*1***
.***.-***.*.*..
..-*.*..*..***-
.-.*..-***..0.*
..**1*-......**
**.*-*.***...*.
*.*-.*.*.*.--*.
*.*.*-...*0.**1
...........-**.

Generation = 16, Population = 82.
-.-*..1****.-..
..*....*.**-...
.....-1*.**..-.
*..0....*1.....
...1*-**1.*...-
-...**.**.**.-*
**...**--.*1.**
**...1.*..**...
..1..*....*..*-
.0..********-..
....-.-..**...*
*...*..**...**.
.*.-.*.*...11*.
.....1..**-***.
.........*.-**.

Generation = 18, Population = 62.
-.-.........-..
.....*.....-...
.....-*......-.
...*.....-.....
...-.-**.*.*.**
**....*.*.*.*1*
*.**...*-*.....
*....1..*......
.*1**.***..**.*
.-...***...**..
....1.-...*.**.
..........**..*
...1*......1-**
....***...1..**
.......**.*0...

Generation = 20, Population = 63.
-.-.........-..
...........-...
.....-.......-.
.....*...*.....
.**-.*........*
*.**..........*
*.*...**-*.*.**
*.**.-.*.**..*.
**1*....*.***..
.-****.*..*..*.
..**-**...**...
...*......**...
..*...*..*.*1**
...*...*.*..*..
.......*.*.*...
